\relax 
\citation{V8}
\citation{JS_Usage}
\citation{selakovic2016performance}
\citation{wei2017system}
\citation{chevalier2015interprocedural}
\citation{Nodejs}
\citation{tilkov2010node}
\citation{viennot2015synapse}
\citation{raoux2008phase}
\citation{dieny2008spin}
\citation{nielsen1999use}
\@writefile{toc}{\contentsline {title}{SPMP: A Shared Persistent Memory Parallel Programming Model for Node.js}{1}}
\@writefile{toc}{\authcount {7}}
\@writefile{toc}{\contentsline {author}{Qipeng Zhang\unskip {} \and Hao Xu\unskip {} \and Tianyou Li\unskip {} \and Pan Deng\unskip {} \unskip \ \ignorespaces  \and Yuting Chen\unskip {} \and Linpeng Huang\unskip {} \and Andy Rudoff\unskip {} }{1}}
\@writefile{toc}{\contentsline {section}{\numberline {1}Introduction}{1}}
\citation{WebWorker}
\citation{bonetta2016gems}
\citation{salucci2016generic}
\citation{ArrayBuffer}
\@writefile{toc}{\contentsline {section}{\numberline {2}Background}{3}}
\@writefile{toc}{\contentsline {section}{\numberline {3}Design and Implementation}{3}}
\@writefile{lof}{\contentsline {figure}{\numberline {1}{\ignorespaces Overview of SPMP model.}}{4}}
\newlabel{figure1}{{1}{4}}
\@writefile{toc}{\contentsline {subsection}{\numberline {3.1}PersistentArrayBuffer}{4}}
\@writefile{lot}{\contentsline {table}{\numberline {1}{\ignorespaces Functions and properties of PAB.}}{5}}
\newlabel{table1}{{1}{5}}
\@writefile{toc}{\contentsline {subsection}{\numberline {3.2}Shared objects}{5}}
\@writefile{toc}{\contentsline {subsubsection}{Child Process.}{5}}
\@writefile{toc}{\contentsline {subsubsection}{Shared memory-mapped files.}{6}}
\newlabel{eq1}{{1}{6}}
\@writefile{toc}{\contentsline {subsubsection}{Shared common parameters.}{6}}
\@writefile{lot}{\contentsline {table}{\numberline {2}{\ignorespaces Definition of parameters.}}{7}}
\newlabel{table2}{{2}{7}}
\@writefile{toc}{\contentsline {subsection}{\numberline {3.3}BSP and parallel algorithms}{7}}
\@writefile{lof}{\contentsline {figure}{\numberline {2}{\ignorespaces Bulk synchronous parallel.}}{7}}
\newlabel{figure2}{{2}{7}}
\newlabel{eq2}{{2}{8}}
\@writefile{toc}{\contentsline {subsection}{\numberline {3.4}Concurrency control}{8}}
\@writefile{lot}{\contentsline {table}{\numberline {3}{\ignorespaces Basic operations in experiments.}}{9}}
\newlabel{table3}{{3}{9}}
\@writefile{toc}{\contentsline {section}{\numberline {4}Evaluation}{9}}
\@writefile{toc}{\contentsline {subsection}{\numberline {4.1}Experiment Setup}{9}}
\@writefile{lof}{\contentsline {figure}{\numberline {3}{\ignorespaces Operations per second for different processes.}}{10}}
\newlabel{figure3}{{3}{10}}
\@writefile{toc}{\contentsline {subsection}{\numberline {4.2}Multiple processes}{10}}
\@writefile{toc}{\contentsline {subsection}{\numberline {4.3}Parallel algorithms}{10}}
\@writefile{lof}{\contentsline {figure}{\numberline {4}{\ignorespaces Different parallel algorithms: guided and preempt.}}{11}}
\@writefile{lof}{\contentsline {subfigure}{\numberline{(a)}{\ignorespaces {guided}}}{11}}
\@writefile{lof}{\contentsline {subfigure}{\numberline{(b)}{\ignorespaces {preempt}}}{11}}
\newlabel{figure4}{{4}{11}}
\@writefile{toc}{\contentsline {subsection}{\numberline {4.4}SPMP vs. EMS}{11}}
\@writefile{toc}{\contentsline {section}{\numberline {5}Conclusions}{11}}
\bibstyle{splncs}
\bibdata{ref}
\bibcite{V8}{1}
\bibcite{JS_Usage}{2}
\bibcite{selakovic2016performance}{3}
\bibcite{wei2017system}{4}
\bibcite{chevalier2015interprocedural}{5}
\bibcite{Nodejs}{6}
\@writefile{lof}{\contentsline {figure}{\numberline {5}{\ignorespaces Compare different strategies of EMS and SPMP.}}{12}}
\newlabel{figure5}{{5}{12}}
\bibcite{tilkov2010node}{7}
\bibcite{viennot2015synapse}{8}
\bibcite{raoux2008phase}{9}
\bibcite{dieny2008spin}{10}
\bibcite{nielsen1999use}{11}
\bibcite{WebWorker}{12}
\bibcite{bonetta2016gems}{13}
\bibcite{salucci2016generic}{14}
\bibcite{ArrayBuffer}{15}
